{
	"0": {
		"ddi": null,
		"number": null
	},
	"559999999999": {
		"ddi": "55",
		"number": "9999999999"
	},
	"5521999999999": {
		"ddi": "55",
		"number": "21999999999"
	},
	"5511974159487": {
		"ddi": "55",
		"number": "11974159487"
	},
	"5531995275914": {
		"ddi": "55",
		"number": "31995275914"
	},
	"5512982800103": {
		"ddi": "55",
		"number": "12982800103"
	},
	"55\r": {
		"ddi": "55\r",
		"number": ""
	},
	"5599 999999999": {
		"ddi": "55",
		"number": "99 999999999"
	},
	"55\r31996121932": {
		"ddi": "55\r",
		"number": "31996121932"
	},
	"5531 99612-1932": {
		"ddi": "55",
		"number": "31 99612-1932"
	},
	"5531 9612-1932": {
		"ddi": "55",
		"number": "31 9612-1932"
	},
	"62\r85245769732": {
		"ddi": "62\r",
		"number": "85245769732"
	},
	"48459266680": {
		"ddi": "48",
		"number": "459266680"
	},
	"48459231566": {
		"ddi": "48",
		"number": "459231566"
	},
	"6281538789936": {
		"ddi": "62",
		"number": "81538789936"
	},
	"622375910451": {
		"ddi": "62",
		"number": "2375910451"
	},
	"62882-0055-52448": {
		"ddi": "62",
		"number": "882-0055-52448"
	},
	"6285290382373": {
		"ddi": "62",
		"number": "85290382373"
	},
	"625290382373": {
		"ddi": "62",
		"number": "5290382373"
	},
	"6283833387450": {
		"ddi": "62",
		"number": "83833387450"
	},
	"6283135978190": {
		"ddi": "62",
		"number": "83135978190"
	},
	"6283143242761": {
		"ddi": "62",
		"number": "83143242761"
	},
	"6285727589457": {
		"ddi": "62",
		"number": "85727589457"
	},
	"48\r459264097": {
		"ddi": "48\r",
		"number": "459264097"
	},
	"91\r6296541404": {
		"ddi": "91\r",
		"number": "6296541404"
	},
	"558396406648": {
		"ddi": "55",
		"number": "8396406648"
	},
	"917065271477": {
		"ddi": "91",
		"number": "7065271477"
	},
	"6283834308116": {
		"ddi": "62",
		"number": "83834308116"
	},
	"628999999999": {
		"ddi": "62",
		"number": "8999999999"
	},
	"62881026551198\r": {
		"ddi": "62",
		"number": "881026551198\r"
	},
	"60881026551198": {
		"ddi": "60",
		"number": "881026551198"
	},
	"62881026551198": {
		"ddi": "62",
		"number": "881026551198"
	},
	"48459264097": {
		"ddi": "48",
		"number": "459264097"
	},
	"6289675302121": {
		"ddi": "62",
		"number": "89675302121"
	},
	"62\r881026551198": {
		"ddi": "62\r",
		"number": "881026551198"
	},
	"+": {
		"ddi": "",
		"number": "+"
	},
	"+62": {
		"ddi": "+62",
		"number": ""
	},
	"+6283155306554": {
		"ddi": "+62",
		"number": "83155306554"
	},
	"NaN": {}
}